…
q2_data <- q1_data %>%
  drop_na(Critic_Score) %>%
  drop_na(User_Score)   #dropping games with no available Sale data
```

### Marginal Summaries

``` r
q1_data %>%
  group_by(Platform) %>%
  summarise(maxSales = max(Global_Sales)) #3
```

    ## # A tibble: 39 × 2
    ##    Platform maxSales
    ##    <chr>       <dbl>
    ##  1 2600         7.81
    ##  2 3DO          0.09
    ##  3 3DS         16.1 
    ##  4 DC           2.42
    ##  5 DS          29.8 
    ##  6 GB          31.4 
    ##  7 GBA         15.8 
    ##  8 GBC          6.39
    ##  9 GC           7.07
    ## 10 GEN          6.03
    ## # ℹ 29 more rows
…
